<svg width="24" height="19" viewBox="0 0 24 19" fill="none" xmlns="http://www.w3.org/2000/svg">
<path fill-rule="evenodd" clip-rule="evenodd" d="M23.6095 1.05849C24.1302 1.57919 24.1302 2.42341 23.6095 2.94411L8.94281 17.6108C8.42211 18.1315 7.57789 18.1315 7.05719 17.6108L0.390524 10.9441C-0.130175 10.4234 -0.130175 9.57919 0.390524 9.05849C0.911223 8.53779 1.75544 8.53779 2.27614 9.05849L8 14.7824L21.7239 1.05849C22.2446 0.537794 23.0888 0.537794 23.6095 1.05849Z" fill="inherit || #fff"/>
</svg>
