<svg width="24" height="24" viewBox="0 0 24 24" fill="none" xmlns="http://www.w3.org/2000/svg">
<path fill-rule="evenodd" clip-rule="evenodd" d="M6.25105 9.25628C6.58579 8.91457 7.1285 8.91457 7.46323 9.25628L12 13.8876L16.5368 9.25628C16.8715 8.91457 17.4142 8.91457 17.7489 9.25628C18.0837 9.59799 18.0837 10.152 17.7489 10.4937L12.6061 15.7437C12.2714 16.0854 11.7286 16.0854 11.3939 15.7437L6.25105 10.4937C5.91632 10.152 5.91632 9.59799 6.25105 9.25628Z" fill="#7A7A7A"/>
</svg>
