<svg width="12" height="7" viewBox="0 0 12 7" fill="none" xmlns="http://www.w3.org/2000/svg">
    <path fill-rule="evenodd" clip-rule="evenodd" d="M11.7489 0.256282C11.4142 -0.0854272 10.8715 -0.0854273 10.5368 0.256281L6 4.88756L1.46323 0.256281C1.1285 -0.0854281 0.585786 -0.0854282 0.251051 0.256281C-0.0836831 0.597989 -0.0836831 1.15201 0.251051 1.49372L5.39391 6.74372C5.72864 7.08543 6.27136 7.08543 6.60609 6.74372L11.7489 1.49372C12.0837 1.15201 12.0837 0.59799 11.7489 0.256282Z" fill="#7A7A7A"/>
</svg>
