<svg width="18" height="11" viewBox="0 0 18 11" fill="none" xmlns="http://www.w3.org/2000/svg">
    <path fill-rule="evenodd" clip-rule="evenodd" d="M6.49609 9.80105H11.2946V1.17554H6.49609V9.80105Z" fill="#FF5F00"/>
    <path fill-rule="evenodd" clip-rule="evenodd" d="M6.80062 5.48829C6.80062 3.73839 7.61972 2.17986 8.8952 1.17554C7.96246 0.440925 6.78539 0.00268555 5.5061 0.00268555C2.47758 0.00268555 0.022583 2.45856 0.022583 5.48829C0.022583 8.51787 2.47758 10.9739 5.5061 10.9739C6.78539 10.9739 7.96246 10.5357 8.8952 9.80105C7.61972 8.79657 6.80062 7.2382 6.80062 5.48829Z" fill="#EB001B"/>
    <path fill-rule="evenodd" clip-rule="evenodd" d="M17.5967 8.88755V8.67452H17.5411L17.4772 8.82096L17.4133 8.67452H17.3577V8.88755H17.397V8.72694L17.4568 8.8653H17.4975L17.5575 8.72648V8.88755H17.5967ZM17.2448 8.88754V8.71093H17.3159V8.67482H17.1346V8.71093H17.2058V8.88754H17.2448ZM17.7679 5.48829C17.7679 8.51787 15.3129 10.9739 12.2844 10.9739C11.0051 10.9739 9.82815 10.5357 8.89526 9.80105C10.1707 8.79657 10.9898 7.2382 10.9898 5.48829C10.9898 3.73839 10.1707 2.17986 8.89526 1.17554C9.82815 0.440925 11.0051 0.00268555 12.2844 0.00268555C15.3129 0.00268555 17.7679 2.45856 17.7679 5.48829Z" fill="#F79E1B"/>
</svg>

