<svg width="14" height="14" viewBox="0 0 14 14" fill="none" xmlns="http://www.w3.org/2000/svg">
    <rect x="0.5" y="0.5" width="13" height="11" rx="0.5" stroke="#CCCCCC"/>
    <rect y="13" width="14" height="1" rx="0.5" fill="#CCCCCC"/>
</svg>
